<svg width="400" height="240" viewBox="0 0 400 240" fill="none" xmlns="http://www.w3.org/2000/svg">
<path d="M102.913 60.5322H341.95C345.263 60.5322 347.95 63.2185 347.95 66.5322V145.858C347.95 149.172 345.263 151.858 341.95 151.858H308.093V178.857H300.081L279.808 151.858H252.166H102.913V60.5322Z" fill="#292B2E" stroke="#292B2E" stroke-linecap="round" stroke-linejoin="round"/>
<path d="M94.7444 66.5322C94.7444 63.2185 97.4307 60.5322 100.744 60.5322H333.781C337.094 60.5322 339.781 63.2185 339.781 66.5322V145.858C339.781 149.172 337.094 151.858 333.781 151.858H299.924V178.857L271.639 151.858H243.997H100.744C97.4307 151.858 94.7444 149.172 94.7444 145.858V66.5322Z" fill="white"/>
<path d="M271.639 151.858L271.985 151.496C271.892 151.407 271.768 151.358 271.639 151.358V151.858ZM299.924 151.858V151.358C299.648 151.358 299.424 151.582 299.424 151.858H299.924ZM299.924 178.857L299.579 179.219C299.724 179.357 299.937 179.396 300.121 179.317C300.305 179.238 300.424 179.057 300.424 178.857H299.924ZM100.744 61.0322H333.781V60.0322H100.744V61.0322ZM339.281 66.5322V145.858H340.281V66.5322H339.281ZM95.2444 145.858V66.5322H94.2444V145.858H95.2444ZM243.997 151.358H100.744V152.358H243.997V151.358ZM271.639 151.358H243.997V152.358H271.639V151.358ZM333.781 151.358H299.924V152.358H333.781V151.358ZM299.424 151.858V178.857H300.424V151.858H299.424ZM300.27 178.496L271.985 151.496L271.294 152.22L299.579 179.219L300.27 178.496ZM94.2444 145.858C94.2444 149.448 97.1545 152.358 100.744 152.358V151.358C97.7068 151.358 95.2444 148.895 95.2444 145.858H94.2444ZM339.281 145.858C339.281 148.895 336.818 151.358 333.781 151.358V152.358C337.37 152.358 340.281 149.448 340.281 145.858H339.281ZM333.781 61.0322C336.818 61.0322 339.281 63.4947 339.281 66.5322H340.281C340.281 62.9424 337.37 60.0322 333.781 60.0322V61.0322ZM100.744 60.0322C97.1545 60.0322 94.2444 62.9424 94.2444 66.5322H95.2444C95.2444 63.4947 97.7068 61.0322 100.744 61.0322V60.0322Z" fill="#292B2E"/>
<path d="M94.3728 105.832H65.8405C62.5268 105.832 59.8405 108.518 59.8405 111.832V165.166C59.8405 168.479 62.5268 171.166 65.8405 171.166H99.6967V198.165L127.982 171.166H203.152H226.08C229.394 171.166 232.08 168.479 232.08 165.166V151.732" stroke="#292B2E" stroke-linecap="round" stroke-linejoin="round"/>
<path d="M146.651 22C146.651 18.6863 143.965 16 140.651 16H68.6171C65.3034 16 62.6171 18.6863 62.6171 22V30.7242C62.6171 34.0379 65.3034 36.7242 68.6171 36.7242H75.7834V45.7052L85.1272 36.7242H94.2587H140.651C143.965 36.7242 146.651 34.0379 146.651 30.7242V22Z" fill="white"/>
<path d="M85.1272 36.7242L84.7807 36.3637C84.8739 36.2742 84.998 36.2242 85.1272 36.2242V36.7242ZM75.7834 36.7242V36.2242C76.0595 36.2242 76.2834 36.448 76.2834 36.7242H75.7834ZM75.7834 45.7052L76.1299 46.0656C75.9854 46.2045 75.7719 46.2437 75.5875 46.1652C75.4031 46.0867 75.2834 45.9056 75.2834 45.7052H75.7834ZM140.651 16.5H68.6171V15.5H140.651V16.5ZM63.1171 22V30.7242H62.1171V22H63.1171ZM146.151 30.7242V22H147.151V30.7242H146.151ZM94.2587 36.2242H140.651V37.2242H94.2587V36.2242ZM85.1272 36.2242H94.2587V37.2242H85.1272V36.2242ZM68.6171 36.2242H75.7834V37.2242H68.6171V36.2242ZM76.2834 36.7242V45.7052H75.2834V36.7242H76.2834ZM75.4369 45.3447L84.7807 36.3637L85.4737 37.0846L76.1299 46.0656L75.4369 45.3447ZM147.151 30.7242C147.151 34.314 144.241 37.2242 140.651 37.2242V36.2242C143.689 36.2242 146.151 33.7617 146.151 30.7242H147.151ZM63.1171 30.7242C63.1171 33.7617 65.5795 36.2242 68.6171 36.2242V37.2242C65.0272 37.2242 62.1171 34.314 62.1171 30.7242H63.1171ZM68.6171 16.5C65.5795 16.5 63.1171 18.9624 63.1171 22H62.1171C62.1171 18.4101 65.0272 15.5 68.6171 15.5V16.5ZM140.651 15.5C144.241 15.5 147.151 18.4101 147.151 22H146.151C146.151 18.9624 143.689 16.5 140.651 16.5V15.5Z" fill="#292B2E"/>
<path d="M129.839 25.3446H133.667L134.846 21.7051L136.031 25.3446L139.859 25.3376L136.763 27.5897L137.948 31.2292L134.853 28.9772L131.757 31.2292L132.935 27.5897L129.839 25.3446Z" fill="#292B2E"/>
<path d="M114.7 25.3446H118.528L119.706 21.7051L120.891 25.3446L124.719 25.3376L121.623 27.5897L122.809 31.2292L119.713 28.9772L116.617 31.2292L117.796 27.5897L114.7 25.3446Z" fill="#292B2E"/>
<path d="M99.5599 25.3446H103.388L104.566 21.7051L105.751 25.3446L109.579 25.3376L106.483 27.5897L107.669 31.2292L104.573 28.9772L101.477 31.2292L102.656 27.5897L99.5599 25.3446Z" fill="#292B2E"/>
<path d="M84.4203 25.3446H88.2481L89.4264 21.7051L90.6117 25.3446L94.4395 25.3376L91.3438 27.5897L92.5291 31.2292L89.4334 28.9772L86.3377 31.2292L87.516 27.5897L84.4203 25.3446Z" fill="#292B2E"/>
<path d="M69.2807 25.3446H73.1084L74.2867 21.7051L75.472 25.3446L79.2998 25.3376L76.2041 27.5897L77.3894 31.2292L74.2937 28.9772L71.198 31.2292L72.3763 27.5897L69.2807 25.3446Z" fill="#292B2E"/>
<path d="M192.301 201.088C192.301 197.774 194.987 195.088 198.301 195.088H270.335C273.649 195.088 276.335 197.774 276.335 201.088V209.812C276.335 213.126 273.649 215.812 270.335 215.812H263.169V224.793L253.825 215.812H244.694H198.301C194.987 215.812 192.301 213.126 192.301 209.812V201.088Z" fill="white"/>
<path d="M253.825 215.812L254.172 215.452C254.079 215.362 253.954 215.312 253.825 215.312V215.812ZM263.169 215.812V215.312C262.893 215.312 262.669 215.536 262.669 215.812H263.169ZM263.169 224.793L262.823 225.154C262.967 225.292 263.18 225.332 263.365 225.253C263.549 225.175 263.669 224.993 263.669 224.793H263.169ZM198.301 195.588H270.335V194.588H198.301V195.588ZM275.835 201.088V209.812H276.835V201.088H275.835ZM192.801 209.812V201.088H191.801V209.812H192.801ZM244.694 215.312H198.301V216.312H244.694V215.312ZM253.825 215.312H244.694V216.312H253.825V215.312ZM270.335 215.312H263.169V216.312H270.335V215.312ZM262.669 215.812V224.793H263.669V215.812H262.669ZM263.515 224.433L254.172 215.452L253.479 216.173L262.823 225.154L263.515 224.433ZM191.801 209.812C191.801 213.402 194.711 216.312 198.301 216.312V215.312C195.263 215.312 192.801 212.85 192.801 209.812H191.801ZM275.835 209.812C275.835 212.85 273.373 215.312 270.335 215.312V216.312C273.925 216.312 276.835 213.402 276.835 209.812H275.835ZM270.335 195.588C273.373 195.588 275.835 198.05 275.835 201.088H276.835C276.835 197.498 273.925 194.588 270.335 194.588V195.588ZM198.301 194.588C194.711 194.588 191.801 197.498 191.801 201.088H192.801C192.801 198.05 195.263 195.588 198.301 195.588V194.588Z" fill="#292B2E"/>
<path d="M209.113 204.432H205.285L204.107 200.793L202.922 204.432L199.094 204.426L202.189 206.678L201.004 210.317L204.1 208.065L207.196 210.317L206.017 206.678L209.113 204.432Z" fill="#292B2E"/>
<path d="M224.253 204.432H220.425L219.246 200.793L218.061 204.432L214.233 204.426L217.329 206.678L216.144 210.317L219.239 208.065L222.335 210.317L221.157 206.678L224.253 204.432Z" fill="#292B2E"/>
<path d="M239.392 204.432H235.564L234.386 200.793L233.201 204.432L229.373 204.426L232.469 206.678L231.283 210.317L234.379 208.065L237.475 210.317L236.297 206.678L239.392 204.432Z" fill="#292B2E"/>
<path d="M254.532 204.432H250.705L249.526 200.793L248.341 204.432L244.513 204.426L247.609 206.678L246.424 210.317L249.519 208.065L252.615 210.317L251.437 206.678L254.532 204.432Z" fill="#292B2E"/>
<path d="M269.672 204.432H265.844L264.666 200.793L263.481 204.432L259.653 204.426L262.749 206.678L261.563 210.317L264.659 208.065L267.755 210.317L266.576 206.678L269.672 204.432Z" fill="#292B2E"/>
<path d="M126.857 103.419C133.928 103.419 139.661 97.6417 139.661 90.5155C139.661 83.3893 133.928 77.6123 126.857 77.6123C119.785 77.6123 114.053 83.3893 114.053 90.5155C114.053 97.6417 119.785 103.419 126.857 103.419Z" fill="#FFE3D3" stroke="#292B2E" stroke-linecap="round" stroke-linejoin="round"/>
<path d="M124.012 88.1689C123.725 87.8388 123.383 87.5766 123.006 87.3975C122.628 87.2185 122.223 87.1263 121.813 87.1263C121.404 87.1263 120.998 87.2185 120.621 87.3975C120.243 87.5766 119.901 87.8388 119.614 88.1689" stroke="#292B2E" stroke-linecap="round" stroke-linejoin="round"/>
<path d="M134.099 88.1689C133.813 87.8388 133.471 87.5766 133.093 87.3975C132.716 87.2185 132.31 87.1263 131.901 87.1263C131.491 87.1263 131.086 87.2185 130.708 87.3975C130.331 87.5766 129.989 87.8388 129.702 88.1689" stroke="#292B2E" stroke-linecap="round" stroke-linejoin="round"/>
<line x1="114.053" y1="117.957" x2="134.104" y2="117.957" stroke="#292B2E"/>
<line x1="142.273" y1="117.957" x2="234.359" y2="117.957" stroke="#292B2E"/>
<line x1="114.053" y1="130.582" x2="177.176" y2="130.582" stroke="#292B2E"/>
<line x1="186.088" y1="130.582" x2="249.211" y2="130.582" stroke="#292B2E"/>
<line x1="257.38" y1="130.582" x2="320.504" y2="130.582" stroke="#292B2E"/>
<circle cx="343.798" cy="100.694" r="25.6207" transform="rotate(17.3791 343.798 100.694)" fill="white" stroke="#292B2E" stroke-linecap="round" stroke-linejoin="round"/>
<path d="M343.222 110.59C343.733 110.59 344.163 110.412 344.509 110.055C344.855 109.699 345.028 109.268 345.028 108.764C345.028 108.259 344.855 107.828 344.509 107.472C344.163 107.115 343.733 106.937 343.222 106.937C342.68 106.937 342.237 107.115 341.891 107.472C341.544 107.828 341.371 108.259 341.371 108.764C341.371 109.268 341.544 109.699 341.891 110.055C342.237 110.412 342.68 110.59 343.222 110.59ZM344.531 103.017C344.591 102.513 344.749 102.067 345.006 101.681C345.261 101.295 345.72 100.79 346.382 100.167C347.375 99.1867 348.06 98.3701 348.437 97.7168C348.812 97.0635 349 96.3211 349 95.4896C349 94.0345 348.481 92.8538 347.444 91.9475C346.405 91.0424 345.103 90.5898 343.538 90.5898C342.334 90.5898 341.266 90.8423 340.333 91.3471C339.4 91.8519 338.693 92.5052 338.211 93.307C338 93.6336 337.947 93.9751 338.052 94.3315C338.158 94.6878 338.377 94.9254 338.708 95.0442C339.009 95.1927 339.317 95.1998 339.632 95.0656C339.949 94.9325 340.197 94.7324 340.378 94.4651C340.679 93.99 341.093 93.6188 341.62 93.3515C342.146 93.0843 342.74 92.9506 343.402 92.9506C344.396 92.9506 345.156 93.2031 345.683 93.7079C346.209 94.2127 346.472 94.8363 346.472 95.5787C346.472 96.1429 346.299 96.7071 345.954 97.2714C345.607 97.8356 345.118 98.3998 344.486 98.964C343.673 99.6767 343.064 100.375 342.658 101.058C342.252 101.741 342.048 102.394 342.048 103.017C342.048 103.344 342.169 103.618 342.409 103.841C342.65 104.064 342.936 104.176 343.267 104.176C343.598 104.176 343.877 104.064 344.103 103.841C344.328 103.618 344.471 103.344 344.531 103.017Z" fill="#292B2E"/>
<circle cx="45.3594" cy="143.73" r="17.4518" transform="rotate(-14.9324 45.3594 143.73)" fill="white" stroke="#292B2E" stroke-linecap="round" stroke-linejoin="round"/>
<path d="M48.1071 139.924C47.8029 139.743 47.4639 139.632 47.1148 139.601C46.7656 139.569 46.4149 139.617 46.0881 139.742C45.7613 139.866 45.4665 140.063 45.225 140.319C44.9835 140.575 44.8014 140.884 44.6918 141.223C44.4432 140.997 44.1517 140.826 43.8361 140.722C43.5205 140.617 43.1878 140.581 42.8596 140.616C42.5314 140.651 42.2149 140.757 41.9305 140.925C41.6462 141.093 41.4003 141.322 41.2088 141.594C41.0173 141.867 40.8843 142.179 40.8186 142.509C40.7529 142.84 40.7558 143.181 40.8271 143.512C40.8985 143.843 41.0367 144.156 41.2329 144.431C41.4291 144.705 41.6788 144.936 41.9661 145.107L46.4391 147.775L48.9896 143.234C49.1434 142.96 49.2425 142.657 49.2814 142.343C49.3203 142.028 49.2981 141.708 49.2161 141.401C49.1342 141.094 48.9941 140.805 48.8038 140.552C48.6135 140.298 48.3768 140.085 48.1071 139.924V139.924Z" fill="#292B2E" stroke="#292B2E" stroke-miterlimit="10" stroke-linecap="square"/>
</svg>
